%YAML 1.1
%TAG !u! tag:unity3d.com,2011:
--- !u!1 &3761656780924611449
GameObject:
  m_ObjectHideFlags: 0
  m_CorrespondingSourceObject: {fileID: 0}
  m_PrefabInstance: {fileID: 0}
  m_PrefabAsset: {fileID: 0}
  serializedVersion: 6
  m_Component:
  - component: {fileID: 3761656780924556421}
  - component: {fileID: 3761656780924556420}
  - component: {fileID: 3761656780924556423}
  - component: {fileID: 3761656780924556422}
  m_Layer: 0
  m_Name: Power Station
  m_TagString: Station
  m_Icon: {fileID: 0}
  m_NavMeshLayer: 0
  m_StaticEditorFlags: 0
  m_IsActive: 1
--- !u!4 &3761656780924556421
Transform:
  m_ObjectHideFlags: 0
  m_CorrespondingSourceObject: {fileID: 0}
  m_PrefabInstance: {fileID: 0}
  m_PrefabAsset: {fileID: 0}
  m_GameObject: {fileID: 3761656780924611449}
  m_LocalRotation: {x: 0, y: 0, z: 0, w: 1}
  m_LocalPosition: {x: 191, y: -115, z: 0}
  m_LocalScale: {x: 1, y: 1, z: 1}
  m_Children: []
  m_Father: {fileID: 0}
  m_RootOrder: 0
  m_LocalEulerAnglesHint: {x: 0, y: 0, z: 0}
--- !u!212 &3761656780924556420
SpriteRenderer:
  m_ObjectHideFlags: 0
  m_CorrespondingSourceObject: {fileID: 0}
  m_PrefabInstance: {fileID: 0}
  m_PrefabAsset: {fileID: 0}
  m_GameObject: {fileID: 3761656780924611449}
  m_Enabled: 1
  m_CastShadows: 0
  m_ReceiveShadows: 0
  m_DynamicOccludee: 1
  m_MotionVectors: 1
  m_LightProbeUsage: 1
  m_ReflectionProbeUsage: 1
  m_RenderingLayerMask: 1
  m_RendererPriority: 0
  m_Materials:
  - {fileID: 10754, guid: 0000000000000000f000000000000000, type: 0}
  m_StaticBatchInfo:
    firstSubMesh: 0
    subMeshCount: 0
  m_StaticBatchRoot: {fileID: 0}
  m_ProbeAnchor: {fileID: 0}
  m_LightProbeVolumeOverride: {fileID: 0}
  m_ScaleInLightmap: 1
  m_PreserveUVs: 0
  m_IgnoreNormalsForChartDetection: 0
  m_ImportantGI: 0
  m_StitchLightmapSeams: 1
  m_SelectedEditorRenderState: 0
  m_MinimumChartSize: 4
  m_AutoUVMaxDistance: 0.5
  m_AutoUVMaxAngle: 89
  m_LightmapParameters: {fileID: 0}
  m_SortingLayerID: 0
  m_SortingLayer: 0
  m_SortingOrder: 0
  m_Sprite: {fileID: 0}
  m_Color: {r: 1, g: 1, b: 1, a: 1}
  m_FlipX: 0
  m_FlipY: 0
  m_DrawMode: 0
  m_Size: {x: 1, y: 1}
  m_AdaptiveModeThreshold: 0.5
  m_SpriteTileMode: 0
  m_WasSpriteAssigned: 0
  m_MaskInteraction: 0
  m_SpriteSortPoint: 0
--- !u!114 &3761656780924556423
MonoBehaviour:
  m_ObjectHideFlags: 0
  m_CorrespondingSourceObject: {fileID: 0}
  m_PrefabInstance: {fileID: 0}
  m_PrefabAsset: {fileID: 0}
  m_GameObject: {fileID: 3761656780924611449}
  m_Enabled: 1
  m_EditorHideFlags: 0
  m_Script: {fileID: 11500000, guid: dae0859b6f1f945ccbeb8286e0c1a950, type: 3}
  m_Name: 
  m_EditorClassIdentifier: 
  animations:
  - name: Default
    frameMS: 33
    sprites:
    - {fileID: -6110656803992641779, guid: aded01c1c81ca4bfa8303e1d04f21a6b, type: 3}
    - {fileID: -6110656803992641779, guid: aded01c1c81ca4bfa8303e1d04f21a6b, type: 3}
    - {fileID: 6128299156075563123, guid: aded01c1c81ca4bfa8303e1d04f21a6b, type: 3}
  - name: Claimed
    frameMS: 100
    sprites:
    - {fileID: 6813553822765877458, guid: aded01c1c81ca4bfa8303e1d04f21a6b, type: 3}
    - {fileID: -5082647686934749709, guid: aded01c1c81ca4bfa8303e1d04f21a6b, type: 3}
--- !u!114 &3761656780924556422
MonoBehaviour:
  m_ObjectHideFlags: 0
  m_CorrespondingSourceObject: {fileID: 0}
  m_PrefabInstance: {fileID: 0}
  m_PrefabAsset: {fileID: 0}
  m_GameObject: {fileID: 3761656780924611449}
  m_Enabled: 1
  m_EditorHideFlags: 0
  m_Script: {fileID: 11500000, guid: 168a3b2e84bc2419a8a7f88bdaa32454, type: 3}
  m_Name: 
  m_EditorClassIdentifier: 
  height: 1
  speed: 4
  jumpPower: 6
  layer: 0
  hitBoxSize: {x: 1.5, y: 1.5}
  deathSound: {fileID: 0}
  pickupType: 1
  chargeCost: 100
  collected: 0
  item: {fileID: 0}
  itemName: 
